…
### Шаг 2

Выполним анализ точек доступа:

#### 1. Определим небезопасные точки доступа (без шифрования – OPN):

``` r
unsave_p <- td_data %>% filter(Privacy == "OPN") %>% select(BSSID)
unsave_p
```

    # A tibble: 42 × 1
       BSSID            
       <chr>            
     1 E8:28:C1:DC:B2:52
     2 E8:28:C1:DC:B2:50
     3 E8:28:C1:DC:B2:51
     4 E8:28:C1:DC:FF:F2
     5 00:25:00:FF:94:73
     6 E8:28:C1:DD:04:52
     7 E8:28:C1:DE:74:31
     8 E8:28:C1:DE:74:32
     9 E8:28:C1:DC:C8:32
    10 E8:28:C1:DD:04:50
    # ℹ 32 more rows

#### 2. Определим производителя для каждого обнаруженного устройства:

``` r
manuf_db <- read.delim("manuf.txt", sep = "\t", header = FALSE,
                       comment.char = "#", strip.white = TRUE,
                       col.names = c("MAC_prefix", "Short_name", "Full_name"),
                       quote = "")
```

``` r
unsave_p %>% mutate(OUI = substr(BSSID, 1, 8)) %>% left_join(manuf_db, by = c("OUI" = "MAC_prefix")) %>% select(BSSID, Full_name)
```

    # A tibble: 42 × 2
       BSSID             Full_name            
       <chr>             <chr>                
     1 E8:28:C1:DC:B2:52 Eltex Enterprise Ltd.
     2 E8:28:C1:DC:B2:50 Eltex Enterprise Ltd.
     3 E8:28:C1:DC:B2:51 Eltex Enterprise Ltd.
     4 E8:28:C1:DC:FF:F2 Eltex Enterprise Ltd.
     5 00:25:00:FF:94:73 Apple, Inc.          
     6 E8:28:C1:DD:04:52 Eltex Enterprise Ltd.
     7 E8:28:C1:DE:74:31 Eltex Enterprise Ltd.
     8 E8:28:C1:DE:74:32 Eltex Enterprise Ltd.
     9 E8:28:C1:DC:C8:32 Eltex Enterprise Ltd.
    10 E8:28:C1:DD:04:50 Eltex Enterprise Ltd.
    # ℹ 32 more rows
…
session_result
```

    # A tibble: 167 × 4
       BSSID             session_begin       session_complete    active_seconds
       <chr>             <dttm>              <dttm>                       <dbl>
     1 00:25:00:FF:94:73 2023-07-28 09:13:06 2023-07-28 11:56:21           9795
     2 E8:28:C1:DD:04:52 2023-07-28 09:13:09 2023-07-28 11:56:05           9776
     3 E8:28:C1:DC:B2:52 2023-07-28 09:13:03 2023-07-28 11:55:38           9755
     4 08:3A:2F:56:35:FE 2023-07-28 09:13:27 2023-07-28 11:55:53           9746
     5 6E:C7:EC:16:DA:1A 2023-07-28 09:13:03 2023-07-28 11:55:12           9729
     6 E8:28:C1:DC:B2:50 2023-07-28 09:13:06 2023-07-28 11:55:12           9726
     7 48:5B:39:F9:7A:48 2023-07-28 09:13:06 2023-07-28 11:55:11           9725
     8 E8:28:C1:DC:B2:51 2023-07-28 09:13:06 2023-07-28 11:55:11           9725
     9 E8:28:C1:DC:FF:F2 2023-07-28 09:13:06 2023-07-28 11:55:10           9724
    10 8E:55:4A:85:5B:01 2023-07-28 09:13:06 2023-07-28 11:55:09           9723
    # ℹ 157 more rows
…
    Time_start = min(First_time_seen),
    Time_end = max(Last_time_seen),
    .groups = "drop"
  ) %>%
  mutate(
    Sec = as.numeric(Time_end - Time_start, units = "secs"),
    Beac_per_sec = Total_beac / Sec
  ) %>%
  filter(Sec > 0) %>%
  ungroup() %>%
  arrange(desc(Beac_per_sec)) %>%
  select(BSSID, Total_beac, Sec, Beac_per_sec)
```

    # A tibble: 124 × 4
       BSSID             Total_beac   Sec Beac_per_sec
       <chr>                  <int> <dbl>        <dbl>
     1 F2:30:AB:E9:03:ED          6     7        0.857
     2 B2:CF:C0:00:4A:60          4     5        0.8  
     3 3A:DA:00:F9:0C:02          5     9        0.556
     4 00:3E:1A:5D:14:45          1     2        0.5  
     5 02:BC:15:7E:D5:DC          1     2        0.5  
     6 76:C5:A0:70:08:96          1     2        0.5  
     7 D2:25:91:F6:6C:D8          5    13        0.385
     8 BE:F1:71:D6:10:D7       1647  9461        0.174
     9 00:03:7A:1A:03:56          1     6        0.167
    10 38:1A:52:0D:84:D7        704  4319        0.163
    # ℹ 114 more rows

### Шаг 3

Выполним анализ данных клиентов:

#### 1. Определим производителя для каждого обнаруженного устройства:

``` r
client_data %>% mutate(OUI = substr(Station_MAC, 1, 8)) %>% left_join(manuf_db, by = c("OUI" = "MAC_prefix")) %>% select(Station_MAC, Full_name)
```

    # A tibble: 12,081 × 2
       Station_MAC       Full_name                           
       <chr>             <chr>                               
     1 CA:66:3B:8F:56:DD <NA>                                
     2 96:35:2D:3D:85:E6 <NA>                                
     3 5C:3A:45:9E:1A:7B Chongqing Fugui Electronics Co.,Ltd.
     4 C0:E4:34:D8:E7:E5 AzureWave Technology Inc.           
     5 5E:8E:A6:5E:34:81 <NA>                                
     6 10:51:07:CB:33:E7 Intel Corporate                     
     7 68:54:5A:40:35:9E Intel Corporate                     
     8 74:4C:A1:70:CE:F7 Liteon Technology Corporation       
     9 8A:A3:5A:33:76:57 <NA>                                
    10 CA:54:C4:8B:B5:3A <NA>                                
    # ℹ 12,071 more rows

#### 2. Обнаружим устройства, которые НЕ рандомизируют свой MAC адрес:

``` r
client_data %>% filter(!substr(Station_MAC, 2, 2) %in% c("2", "6", "A", "E")) %>% distinct() %>% select(Station_MAC)
```

    # A tibble: 220 × 1
       Station_MAC      
       <chr>            
     1 5C:3A:45:9E:1A:7B
     2 C0:E4:34:D8:E7:E5
     3 10:51:07:CB:33:E7
     4 68:54:5A:40:35:9E
     5 74:4C:A1:70:CE:F7
     6 BC:F1:71:D4:DB:04
     7 4C:44:5B:14:76:E3
     8 A0:E7:0B:AE:D5:44
     9 00:95:69:E7:7F:35
    10 00:95:69:E7:7C:ED
    # ℹ 210 more rows
…
result
```

    # A tibble: 1,831 × 4
       Station_MAC       networks            first               last               
       <chr>             <chr>               <dttm>              <dttm>             
     1 00:90:4C:E6:54:54 "Redmi"             2023-07-28 09:16:59 2023-07-28 10:21:15
     2 00:95:69:E7:7C:ED "nvripcsuite"       2023-07-28 09:13:11 2023-07-28 11:56:13
     3 00:95:69:E7:7D:21 "nvripcsuite"       2023-07-28 09:13:15 2023-07-28 11:56:17
     4 00:95:69:E7:7F:35 "nvripcsuite"       2023-07-28 09:13:11 2023-07-28 11:56:07
     5 00:F4:8D:F7:C5:19 "Hornet24"          2023-07-28 10:45:04 2023-07-28 11:43:26
     6 00:F4:8D:F7:C5:19 "Redmi 12"          2023-07-28 10:45:04 2023-07-28 11:43:26
     7 02:00:00:00:00:00 "CPPK_FREE"         2023-07-28 09:54:40 2023-07-28 11:55:36
     8 02:00:00:00:00:00 "MIREA"             2023-07-28 09:54:40 2023-07-28 11:55:36
     9 02:00:00:00:00:00 "MIREA_HOTSPOT"     2023-07-28 09:54:40 2023-07-28 11:55:36
    10 02:00:00:00:00:00 "\\xAC\\xBA\\xAC\\… 2023-07-28 09:54:40 2023-07-28 11:55:36
    # ℹ 1,821 more rows
…
